// Jest Snapshot v1, https://goo.gl/fbAQLP

exports[`Publication Info Add information, manually. 1`] = `
<div
  className="publication-info "
>
  <span
    className="name-value-item "
  >
    <span
      className="name "
    >
      Erstellt: 
       
    </span>
    <span
      className="value "
    >
      25.07.2017, 14:37 Uhr
    </span>
  </span>
  <span
    className="name-value-item "
  >
    <span
      className="name "
    >
      Letzte Änderung: 
       
    </span>
    <span
      className="value "
    >
      25.07.2017, 17:30 Uhr
    </span>
  </span>
  <span
    className="name-value-item "
  >
    <span
      className="name "
    >
      Version
       
    </span>
    <span
      className="value "
    >
      1.1.2
    </span>
  </span>
</div>
`;

exports[`Publication Info All data provided by window.project 1`] = `
<div
  className="publication-info "
>
  <span
    className="name-value-item "
  >
    <span
      className="name "
    >
      Erstellt: 
       
    </span>
    <span
      className="value "
    >
      25.07.2017, 14:37 Uhr
    </span>
  </span>
  <span
    className="name-value-item "
  >
    <span
      className="name "
    >
      Letzte Änderung: 
       
    </span>
    <span
      className="value "
    >
      25.07.2017, 17:30 Uhr
    </span>
  </span>
  <span
    className="name-value-item "
  >
    <span
      className="name "
    >
      Version
       
    </span>
    <span
      className="value "
    >
      1.2.0
    </span>
  </span>
</div>
`;

exports[`Publication Info Default Setting, without any input 1`] = `
<div
  className="publication-info "
/>
`;

exports[`Publication Info Just having the publication date 1`] = `
<div
  className="publication-info "
>
  <span
    className="name-value-item "
  >
    <span
      className="name "
    >
      Erstellt: 
       
    </span>
    <span
      className="value "
    >
      25.07.2017, 14:37 Uhr
    </span>
  </span>
</div>
`;

exports[`Publication Info Publication and change date, 1`] = `
<div
  className="publication-info "
>
  <span
    className="name-value-item "
  >
    <span
      className="name "
    >
      Erstellt: 
       
    </span>
    <span
      className="value "
    >
      25.07.2017, 14:37 Uhr
    </span>
  </span>
  <span
    className="name-value-item "
  >
    <span
      className="name "
    >
      Letzte Änderung: 
       
    </span>
    <span
      className="value "
    >
      25.07.2017, 17:30 Uhr
    </span>
  </span>
</div>
`;

exports[`Publication Info Publication date provided by window.project 1`] = `
<div
  className="publication-info "
>
  <span
    className="name-value-item "
  >
    <span
      className="name "
    >
      Erstellt: 
       
    </span>
    <span
      className="value "
    >
      25.07.2017, 14:37 Uhr
    </span>
  </span>
</div>
`;
